Game Dev & Cat Enthusiast
▛ ▘▘▘▘▘▘▘▘▘▘▘▘▘▘▘▘▘▘▜
🌍⋙ ezofuzz.me
📡⋙ ezofuzz.me/rss
🐦⋙ @EzoFuzz
🐘⋙ shorturl.at/ituBH
📼⋙ shorturl.at/oyE01
📼⋙ rumble.com/c/c-784347
🔴⋙ twitch.tv/ezofuzz
💰⋙  paypal.me/ezofuzz
▙ ▖▖▖▖▖▖▖▖▖▖▖▖▖▖▖▖▖▖▟

🚫 NSFW
🚫 Politics
🚫 Drama
